%YAML 1.1
%TAG !u! tag:unity3d.com,2011:
--- !u!1045 &1
EditorBuildSettings:
  m_ObjectHideFlags: 0
  serializedVersion: 2
  m_Scenes:
  - enabled: 0
    path: 
    guid: 00000000000000000000000000000000
  - enabled: 1
    path: Assets/Scenes/MainMenu.unity
    guid: ee6635e5486e26944880b131aef9670a
  - enabled: 1
    path: Assets/Scenes/SampleScene.unity
    guid: 26cbafd9594907740b7faef5ae9e22bd
  m_configObjects: {}
